
These instructions will get you a copy of the project up and running on your local machine for development and testing purposes.


Step 1: clone the project
Step 2: run npm inital
step 3: run node app.js

Before running above instructions please make sure that your have node and mongoDB initalled in your local machine.

API

USER API:
    1. localhost:3000/users(POST)- To rigester any new user.
        {
            "username": ,
            "password": ,
            "email": ,
            "role": 
        }
         - username,password,email are mandatory field for creating any user
         - role has a default value of "user"
         - for admin pass role has "admin"
    2. localhost:3000/users/login(POST) - To login any user
        {
            "username": ,
            "password":
        }
    3. localhost:3000/users(GET) - To see all existing user. Only user with role of admin can see this.
    4. localhost:3000/users/:id(DELETE) - To delete any user. Only user with role of admin can do this.

TASK API(CURD):
    1. To use Task Api please login and pass token(in header) with the request.
    2. localhost:3000/task(POST) - To create any task
        {
            "title": ,
            "description: ,
            "completed": 
        }
        - title and description is mandatory to create task
        - completed has a default value of false
    3. localhost:3000/task(GET) - To read all the task created by that user.
    3. localhost:3000/task/:id(PUT) - To update task.
    4. localhost:3000/task/:id(DELETE) - To delete task.

BALANCED API:
    1.localhost:3000/balanced(POST) - To check balanced paranthesis.
        {
            "input": "[{}]"(example)
        }
    



